{
  "version": "1.0",
  "defaultProvider": "unpkg",
  "libraries": [
    {
      "library": "@aspnet/signalr@1.1.0",
      "destination": "wwwroot/lib/signalr/",
      "files": [
        "dist/browser/signalr.js",
        "dist/browser/signalr.min.js"
      ]
    },
    {
      "provider": "cdnjs",
      "library": "jquery-tools@1.2.7",
      "destination": "wwwroot/lib/jquery-tools/"
    }
  ,
{
  "provider": "cdnjs",
  "library": "jquery@3.3.1",
  "destination": "wwwroot/lib/jquery/"
}
]
}